<?xml version="1.0" standalone="no"?>
<!DOCTYPE svg PUBLIC "-//W3C//DTD SVG 1.1//EN" "http://www.w3.org/Graphics/SVG/1.1/DTD/svg11.dtd" >
<svg xmlns="http://www.w3.org/2000/svg">
<metadata>
<json>
{
	"fontFamily": "mobile-social",
	"majorVersion": 1,
	"minorVersion": 0,
	"fontURL": "",
	"description": "Font generated by IcoMoon.",
	"copyright": "",
	"designerURL": "",
	"license": "",
	"version": "Version 1.0",
	"fontId": "mobile-social",
	"psName": "mobile-social",
	"subFamily": "Regular",
	"fullName": "mobile-social"
}
</json>
</metadata>
<defs>
<font id="mobile-social" horiz-adv-x="512">
<font-face units-per-em="512" ascent="480" descent="-32" />
<missing-glyph horiz-adv-x="512" />
<glyph unicode="&#x20;" d="" horiz-adv-x="256" />
<glyph unicode="&#xe600;" d="M409.6 435.2h-307.2c-28.16 0-51.2-23.040-51.2-51.2v-307.2c0-28.16 23.040-51.2 51.2-51.2h307.2c28.16 0 51.2 23.040 51.2 51.2v307.2c0 28.16-23.040 51.2-51.2 51.2zM384 204.8h-102.4v-102.4h-51.2v102.4h-102.4v51.2h102.4v102.4h51.2v-102.4h102.4v-51.2z" />
<glyph unicode="&#xe601;" d="M256 445.44c-118.784 0-215.040-96.307-215.040-215.040 0-118.784 96.281-215.040 215.040-215.040s215.040 96.281 215.040 215.040c0 118.758-96.281 215.040-215.040 215.040zM300.262 230.4l78.362-78.362-44.262-44.262-78.362 78.362-78.362-78.361-44.237 44.262 78.336 78.362-78.336 78.336 44.237 44.262 78.362-78.336 78.361 78.336 44.262-44.237-78.362-78.362z" />
<glyph unicode="&#xe602;" d="M255.616 424.96v-97.997l179.635 0.026v-193.331h-179.635v-97.817l-194.125 194.56z" />
<glyph unicode="&#xe603;" d="M450.56 230.016l-97.997 0.026 0.026 179.609h-193.331v-179.635l-97.817 0.026 194.56-194.151z" />
<glyph unicode="&#xe604;" d="M450.56 230.784l-97.997-0.025 0.026-179.609h-193.331v179.635l-97.817-0.025 194.585 194.15z" />
<glyph unicode="&#xe605;" d="M256.384 424.96v-97.997l-179.635 0.026v-193.331h179.635v-97.817l194.125 194.56z" />
<glyph unicode="&#xe606;" d="M491.52 230.4c0 130.073-105.447 235.52-235.52 235.52s-235.52-105.447-235.52-235.52c0-130.099 105.447-235.546 235.52-235.546s235.52 105.472 235.52 235.546zM71.68 230.4c0 101.786 82.534 184.32 184.32 184.32s184.32-82.534 184.32-184.32c0-101.811-82.534-184.346-184.32-184.346s-184.32 82.534-184.32 184.346zM354.56 184.32v92.16h-104.704v57.6l-97.536-103.68 97.536-103.68v57.6h104.704z" />
<glyph unicode="&#xe607;" d="M256 465.92c-130.073 0-235.52-105.447-235.52-235.52s105.447-235.52 235.52-235.52 235.52 105.447 235.52 235.52-105.447 235.52-235.52 235.52zM256 46.080c-101.811 0-184.32 82.534-184.32 184.32s82.509 184.32 184.32 184.32 184.32-82.534 184.32-184.32-82.509-184.32-184.32-184.32zM302.080 328.96h-92.16v-104.704h-57.6l103.68-97.536 103.68 97.536h-57.6v104.704z" />
<glyph unicode="&#xe608;" d="M256.026-5.12c130.074 0 235.494 105.447 235.494 235.52s-105.421 235.52-235.495 235.52c-130.099 0-235.546-105.446-235.546-235.52s105.447-235.52 235.546-235.52zM256.026 414.72c101.811 0 184.295-82.534 184.295-184.32s-82.509-184.32-184.294-184.32c-101.837 0-184.345 82.509-184.345 184.32s82.509 184.32 184.345 184.32zM209.92 131.84h92.186v104.704h57.6l-103.68 97.536-103.706-97.536h57.6v-104.704z" />
<glyph unicode="&#xe609;" d="M20.48 230.4c0-130.073 105.472-235.52 235.52-235.52 130.073 0 235.52 105.447 235.52 235.52s-105.447 235.52-235.52 235.52c-130.073 0-235.52-105.446-235.52-235.52zM440.32 230.4c0-101.786-82.534-184.32-184.32-184.32s-184.32 82.509-184.32 184.32c0 101.811 82.509 184.32 184.32 184.32s184.32-82.509 184.32-184.32zM157.44 276.48v-92.16h104.704v-57.6l97.536 103.68-97.536 103.68v-57.6h-104.704z" />
<glyph unicode="&#xe60a;" d="M368.615 40.499c6.861-6.938 6.861-18.125 0-25.063s-17.945-6.938-24.807 0l-200.448 202.419c-6.861 6.938-6.861 18.151 0 25.063l200.448 202.445c6.861 6.938 17.945 6.938 24.807 0s6.861-18.125 0-25.063l-182.784-189.901 182.784-189.901z" />
<glyph unicode="&#xe60b;" d="M66.099 343.014c-6.938 6.861-18.151 6.861-25.063 0-6.912-6.835-6.912-17.946 0-24.807l202.445-200.448c6.938-6.861 18.125-6.861 25.063 0l202.445 200.448c6.912 6.861 6.938 17.945 0 24.806s-18.176 6.861-25.063 0.026l-189.927-182.81-189.901 182.784z" />
<glyph unicode="&#xe60c;" d="M445.901 117.785c6.938-6.861 18.151-6.861 25.063 0 6.938 6.861 6.938 17.945 0 24.807l-202.445 200.448c-6.912 6.861-18.125 6.861-25.037 0l-202.445-200.448c-6.912-6.861-6.938-17.945 0-24.807s18.125-6.861 25.063 0l189.901 182.81 189.901-182.81z" />
<glyph unicode="&#xe60d;" d="M143.352 40.499c-6.861-6.938-6.861-18.125 0-25.063s17.946-6.938 24.806 0l200.448 202.419c6.861 6.938 6.861 18.151 0 25.063l-200.448 202.445c-6.861 6.938-17.946 6.938-24.806 0s-6.861-18.125 0-25.063l182.784-189.901-182.784-189.901z" />
<glyph unicode="&#xe60e;" d="M126.029 128c-55.475 0-100.429 45.798-100.429 102.4s44.953 102.4 100.429 102.4c55.475 0 100.454-45.824 100.454-102.4s-44.979-102.4-100.454-102.4zM385.945 128c-55.501 0-100.505 45.798-100.505 102.4s45.005 102.4 100.505 102.4c55.45 0 100.454-45.824 100.454-102.4s-45.005-102.4-100.454-102.4z" />
<glyph unicode="&#xe60f;" d="M484.096 336.87c-25.753-147.763-169.6-272.896-212.864-301.466-43.29-28.57-82.739 11.443-97.075 41.728-16.384 34.483-65.51 221.619-78.387 237.082-12.851 15.539-51.456-15.463-51.456-15.463l-18.713 24.986c0 0 78.387 95.36 138.035 107.264 63.232 12.621 63.13-98.919 78.336-160.845 14.72-59.93 24.601-94.234 37.427-94.234 12.877 0 37.427 33.433 64.333 84.659 26.957 51.277-1.152 96.538-53.811 64.359 21.043 128.717 219.93 159.667 194.176 11.929z" />
<glyph unicode="&#xe610;" d="M491.52 376.499c-17.357-7.706-35.968-12.877-55.526-15.232 19.968 11.955 35.303 30.899 42.496 53.453-18.663-11.059-39.347-19.123-61.337-23.45-17.639 18.791-42.752 30.515-70.553 30.515-53.376 0-96.64-43.264-96.64-96.614 0-7.577 0.845-14.951 2.509-22.016-80.307 4.019-151.526 42.496-199.168 100.966-8.346-14.259-13.133-30.873-13.133-48.589 0-33.536 17.075-63.104 43.008-80.435-15.847 0.512-30.745 4.839-43.776 12.083 0-0.41 0-0.793 0-1.203 0-46.822 33.331-85.863 77.517-94.771-8.090-2.202-16.64-3.379-25.472-3.379-6.221 0-12.263 0.589-18.176 1.715 12.288-38.4 48-66.329 90.265-67.098-33.075-25.933-74.727-41.37-120.013-41.37-7.808 0-15.488 0.461-23.040 1.357 42.752-27.418 93.542-43.418 148.147-43.418 177.741 0 274.944 147.251 274.944 274.969 0 4.173-0.077 8.346-0.281 12.493 18.893 13.619 35.251 30.643 48.231 50.022z" />
<glyph unicode="&#xe611;" d="M384 380.697h-73.113c-8.653 0-18.304-11.366-18.304-26.598v-52.787h91.418v-75.264h-91.418v-226.048h-86.323v226.023h-78.259v75.29h78.259v44.288c0 63.514 44.083 115.2 104.601 115.2h73.139v-80.103z" />
<glyph unicode="&#xe612;" d="M50.944 343.322c0-38.221 12.775-65.843 37.939-82.048 20.608-13.286 44.544-15.283 56.986-15.283 3.021 0 5.427 0.128 7.117 0.231 0 0-3.942-25.677 15.104-51.097l-0.87 0.026c-32.999 0-140.647-6.912-140.647-95.411 0-90.035 98.867-94.592 118.681-94.592 1.561 0 2.458 0.026 2.458 0.026 0.231 0 1.638-0.051 4.045-0.051 12.723 0 45.619 1.587 76.186 16.461 39.629 19.226 59.75 52.711 59.75 99.456 0 45.184-30.618 72.064-52.992 91.725-13.645 11.981-25.446 22.323-25.446 32.384 0 10.24 8.601 17.946 19.507 27.699 17.613 15.769 34.253 38.221 34.253 80.665 0 37.325-4.839 62.362-34.662 78.234 3.123 1.587 14.106 2.739 19.559 3.507 16.154 2.202 39.782 4.711 39.782 17.895v2.534h-117.709c-1.178-0.026-119.040-4.403-119.040-112.358zM240.973 112.589c2.253-35.993-28.544-62.567-74.778-65.92-46.951-3.456-85.632 17.69-87.885 53.683-1.075 17.28 6.502 34.202 21.376 47.693 15.104 13.645 35.789 22.067 58.342 23.757 2.662 0.154 5.299 0.281 7.936 0.281 43.443 0 72.883-25.549 75.008-59.495zM210.227 367.975c11.546-40.627-5.888-83.098-33.664-90.931-3.2-0.896-6.502-1.357-9.831-1.357-25.472 0-50.688 25.754-60.032 61.235-5.222 19.942-4.813 37.35 1.177 54.118 5.888 16.461 16.461 27.623 29.773 31.36 3.2 0.922 6.528 1.357 9.856 1.357 30.72 0 50.483-12.749 62.72-55.782zM408.601 279.501v76.8h-48.64v-76.8h-76.8v-48.64h76.8v-76.8h48.64v76.8h76.8v48.64h-76.8z" />
<glyph unicode="&#xe613;" d="M220.57 147.763c-13.44-70.477-29.85-138.061-78.49-173.363-15.001 106.547 22.041 186.547 39.245 271.488-29.338 49.408 3.533 148.787 65.433 124.288 76.16-30.131-65.945-183.629 29.44-202.803 99.61-20.019 140.262 172.8 78.515 235.495-89.241 90.573-259.789 2.099-238.797-127.513 5.094-31.693 37.837-41.319 13.082-85.043-57.114 12.647-74.163 57.703-71.962 117.76 3.533 98.278 88.32 167.091 173.363 176.614 107.571 12.058 208.512-39.475 222.413-140.647 15.693-114.176-48.512-237.85-163.558-228.941-31.155 2.381-44.237 17.817-68.685 32.666z" />
<glyph unicode="&#xe614;" d="M399.36 20.582c-19.865-9.472-37.888-16.154-53.99-19.968-16.128-3.789-33.587-5.735-52.301-5.735-21.274 0-40.064 2.739-56.448 8.166-16.333 5.453-30.259 13.209-41.831 23.219-11.546 10.112-19.559 20.787-24.013 32.128-4.48 11.341-6.707 27.776-6.707 49.305v165.223h-51.43v66.663c18.279 6.016 33.971 14.592 46.976 25.83 13.056 11.213 23.501 24.704 31.411 40.448 7.885 15.744 13.286 35.737 16.281 60.057h66.176v-119.065h110.464v-73.933h-110.464v-120.807c0-27.289 1.433-44.825 4.327-52.608 2.816-7.731 8.141-13.926 15.897-18.56 10.342-6.247 22.093-9.37 35.353-9.37 23.577 0 47.002 7.757 70.298 23.245v-74.24z" />
<glyph unicode="&#xe615;" d="M389.12 230.4c0-73.523-59.623-133.12-133.12-133.12-73.523 0-133.12 59.597-133.12 133.12 0 8.755 0.871 17.305 2.509 25.6h-89.549v-176.947c0-37.99 30.771-68.813 68.813-68.813h302.694c37.99 0 68.813 30.797 68.813 68.813v176.947h-89.523c1.613-8.294 2.483-16.845 2.483-25.6zM407.347 450.56h-302.695c-38.016 0-68.813-30.822-68.813-68.813v-74.547h111.462c24.089 34.048 63.795 56.32 108.697 56.32s84.608-22.272 108.697-56.32h111.463v74.547c0 37.99-30.822 68.813-68.813 68.813zM441.011 365.568c0-6.784-5.529-12.288-12.288-12.288h-36.839c-6.759 0-12.288 5.529-12.288 12.288v36.864c0 6.784 5.555 12.288 12.288 12.288h36.839c6.784 0 12.288-5.529 12.288-12.288v-36.864zM337.92 230.4c0 45.261-36.685 81.92-81.92 81.92s-81.92-36.659-81.92-81.92 36.685-81.92 81.92-81.92 81.92 36.659 81.92 81.92z" />
<glyph unicode="&#xe616;" d="M17.203 141.926l8.397 35.84-8.397 37.043c-0.23 1.101-2.329 1.945-4.915 1.945-2.611 0-4.71-0.845-4.915-1.945l-7.373-37.043 7.399-35.84c0.205-1.127 2.304-1.945 4.915-1.945 2.56 0 4.659 0.819 4.889 1.945zM69.683 122.035l7.117 55.399-7.117 85.683c-0.205 2.202-2.867 3.917-6.093 3.917-3.251 0-5.913-1.69-6.067-3.891l-6.323-85.709 6.323-55.399c0.154-2.176 2.816-3.865 6.067-3.865 3.225-0.026 5.888 1.69 6.093 3.865zM122.061 122.931l5.939 54.477-5.939 114.099c-0.153 2.663-3.328 4.787-7.194 4.787-3.891 0-7.066-2.099-7.194-4.787l-5.273-114.099 5.273-54.502c0.128-2.663 3.302-4.762 7.194-4.762 3.865 0 7.040 2.099 7.194 4.787zM174.336 123.75l4.864 53.632-4.864 114.944c-0.128 3.175-3.712 5.683-8.192 5.683-4.506 0-8.089-2.509-8.218-5.683l-4.327-114.944 4.352-53.632c0.077-3.149 3.686-5.658 8.192-5.658 4.48 0 8.064 2.457 8.192 5.658zM226.56 124.416l3.84 52.941-3.84 131.789c-0.077 3.635-4.198 6.579-9.165 6.579s-9.063-2.944-9.139-6.579l-3.456-131.738c0-0.077 3.456-52.966 3.456-52.966 0.077-3.584 4.173-6.528 9.139-6.528 4.966-0.026 9.088 2.893 9.165 6.502zM263.117 117.862c0.154 0 181.734-0.103 182.912-0.103 36.454 0 65.971 28.57 65.971 63.821s-29.517 63.821-65.971 63.821c-9.063 0-17.664-1.767-25.523-4.966-5.248 57.498-55.142 102.605-115.968 102.605-14.873 0-29.389-2.816-42.189-7.629-4.966-1.869-6.323-3.763-6.349-7.475v-202.522c0.051-3.917 3.175-7.168 7.117-7.552z" />
<glyph unicode="&#xe617;" d="M449.152 90.419l-96.743 96.743c14.592 23.987 22.989 52.096 22.989 82.227 0 87.45-75.801 163.251-163.277 163.251-87.45 0-158.362-70.912-158.362-158.361 0-87.475 75.776-163.277 163.251-163.277 29.082 0 56.32 7.885 79.744 21.581l97.255-97.28c9.549-9.523 24.96-9.523 34.457 0l24.141 24.115c9.498 9.523 6.041 21.504-3.456 31.002zM102.502 274.279c0 60.544 49.075 109.645 109.619 109.645 60.569 0 114.535-53.965 114.535-114.534s-49.075-109.645-109.645-109.645-114.509 53.965-114.509 114.535z" />
<glyph unicode="&#xe618;" d="M51.251 414.745v-60.621c181.401 0 328.448-147.072 328.448-328.474h60.647c0 214.887-174.208 389.095-389.094 389.095zM51.251 293.478v-60.647c114.432 0 207.206-92.749 207.206-207.181h60.595c0 147.891-119.885 267.827-267.801 267.827zM109.363 141.875c-32.077 0-58.112-26.035-58.112-58.137s26.035-58.112 58.112-58.112c32.102 0 58.137 26.010 58.137 58.112s-26.035 58.137-58.138 58.137z" />
</font></defs></svg>